06-GARCH-VaR
…
df_VaR <- 
  # Tibble avec les différentes mesures de la VaR in-sample
  tibble(
    VaR_historique = VaR_historique, # La valeur va se dupliquer toute seule
    VaR_normale = VaR_VCov,
    VaR_historique_rolling = VaR_rolling_historique |> as.numeric(), # Convertir la série temporelle en série numérique
    VaR_normale_rolling = VaR_rolling_normale |> as.numeric(),
    VaR_EGARCH = VaR_EGARCH,
    VaR_GJR = VaR_GJR
  ) |> 
  drop_na() |> # Retirer les 252 premières valeurs manquantes causées par la VaR en fenêtre glissante
  print()

# A tibble: 4,534 × 6
   VaR_historique VaR_normale VaR_historique_rolling VaR_normale_rolling
            <dbl>       <dbl>                  <dbl>               <dbl>
 1           3.63        2.88                   2.83                2.34
 2           3.63        2.88                   2.83                2.38
 3           3.63        2.88                   2.83                2.38
 4           3.63        2.88                   2.83                2.40
 5           3.63        2.88                   2.83                2.40
 6           3.63        2.88                   2.83                2.40
 7           3.63        2.88                   2.83                2.42
 8           3.63        2.88                   2.83                2.42
 9           3.63        2.88                   2.83                2.46
10           3.63        2.88                   2.83                2.46
# ℹ 4,524 more rows
# ℹ 2 more variables: VaR_EGARCH <dbl>, VaR_GJR <dbl>
…
# Créer le dataframe servant à calculer les moyennes des VaR pour chaque période
df_VaR_long <- 
  df_VaR |>
  # Ajouter une colone qui contient l'indication de la période temporelle (le numéro de ligne)
  mutate(temps = row_number()) |> 
  # Pivoter le df pour mettre toutes les VaR dans une même variable
  pivot_longer(
    cols = -temps,
    names_to = "model",
    values_to = "VaR"
  ) |> 
  print()

# A tibble: 27,204 × 3
   temps model                    VaR
   <int> <chr>                  <dbl>
 1     1 VaR_historique          3.63
 2     1 VaR_normale             2.88
 3     1 VaR_historique_rolling  2.83
 4     1 VaR_normale_rolling     2.34
 5     1 VaR_EGARCH              4.19
 6     1 VaR_GJR                 3.74
 7     2 VaR_historique          3.63
 8     2 VaR_normale             2.88
 9     2 VaR_historique_rolling  2.83
10     2 VaR_normale_rolling     2.38
# ℹ 27,194 more rows

On va maintenant pouvoir calculer la moyenne des VaR pour chaque période de temps.

# Calculer la moyenne des VaR pour chaque période de temps
df_VaR_mean <- 
  df_VaR_long |>
  summarize(
    .by = temps, # Grouper par temps : la moyenne sera calculée pour chaque groupe
    moyenne_VaR = mean(VaR)
  ) |> 
  print()

# A tibble: 4,534 × 2
   temps moyenne_VaR
   <int>       <dbl>
 1     1        3.27
 2     2        3.21
 3     3        3.62
 4     4        3.55
 5     5        3.73
 6     6        3.66
 7     7        3.57
 8     8        3.60
 9     9        3.55
10    10        3.80
# ℹ 4,524 more rows
…
