03-ARIMA
…
  # Pivoter en longueur pour avoir les valeurs dans une seule colonne
  # Permet de facilement gérer les couleurs et légendes avec ggplot2
  pivot_longer(
    cols = !t, # pivoter toutes les colones sauf la date
    names_to = "variable",
    values_to = "rendements"
  ) |> 
  # Garder uniquement les dernières observations pour plus de clarté
  filter(row_number() > 9000) |> 
  print(n = 10) |> 
  # Faire un graphique simple
  ggplot(aes(x = t, y = rendements, color = variable)) +
  geom_line()

# A tibble: 570 × 3
   t          variable     rendements
   <date>     <chr>             <dbl>
 1 2024-11-19 real_value      0.396  
 2 2024-11-19 fitted_value   -0.0105 
 3 2024-11-20 real_value      0.00220
 4 2024-11-20 fitted_value   -0.0111 
 5 2024-11-21 real_value      0.533  
 6 2024-11-21 fitted_value    0.0371 
 7 2024-11-22 real_value      0.346  
 8 2024-11-22 fitted_value   -0.0279 
 9 2024-11-25 real_value      0.302  
10 2024-11-25 fitted_value   -0.00504
# ℹ 560 more rows
…
) |>
  # Pivoter en longueur pour avoir les valeurs dans une seule colonne
  # Permet de facilement gérer les couleurs et légendes avec ggplot2
  pivot_longer(
    cols = !t,
    names_to = "variable",
    values_to = "rendements"
  ) |> 
  # Garder uniquement les dernières observations pour plus de clarté
  filter(row_number() > 9000) |> 
  print() |> 
  ggplot(aes(x = t, y = rendements, color = variable)) +
  geom_line()

# A tibble: 570 × 3
       t variable     rendements
   <dbl> <chr>             <dbl>
 1  4501 real_value      0.396  
 2  4501 fitted_value    0.391  
 3  4502 real_value      0.00220
 4  4502 fitted_value    0.396  
 5  4503 real_value      0.533  
 6  4503 fitted_value    0.00220
 7  4504 real_value      0.346  
 8  4504 fitted_value    0.533  
 9  4505 real_value      0.302  
10  4505 fitted_value    0.346  
# ℹ 560 more rows
…
