ARDL et cointégration
…
Il s’agit d’un objet de classe TS (Time Series) contenant 5 colonnes pour les différentes variables. Les dates sont indiquées en temps que noms des lignes. Il faut donc penser à les récupérer sinon nous n’aurons pas les dates disponibles lorsque l’on va transformer cet objet en tibble.

df <-
  # Charger les données
  ARDL::denmark |> 
  # Transformer en une tibble en indiquant que le nom des lignes doit être mis dans la variable "year"
  as_tibble(rownames = "year") |> 
  # Afficher l'objet
  print()

# A tibble: 55 × 6
   year      LRM   LRY    LPY   IBO    IDE
   <chr>   <dbl> <dbl>  <dbl> <dbl>  <dbl>
 1 1974 Q1  11.6  5.90 -0.619 0.155 0.094 
 2 1974 Q2  11.6  5.87 -0.581 0.178 0.0955
 3 1974 Q3  11.6  5.84 -0.543 0.171 0.0955
 4 1974 Q4  11.6  5.81 -0.505 0.152 0.0955
 5 1975 Q1  11.6  5.80 -0.486 0.134 0.0885
 6 1975 Q2  11.6  5.79 -0.454 0.133 0.079 
 7 1975 Q3  11.7  5.83 -0.441 0.128 0.076 
 8 1975 Q4  11.8  5.93 -0.439 0.129 0.074 
 9 1976 Q1  11.8  5.94 -0.404 0.141 0.072 
10 1976 Q2  11.8  5.94 -0.373 0.153 0.078 
# ℹ 45 more rows
…
  mutate(t = row_number()) |> 
  # Regrouper toutes les valeurs des variables d'intérêt dans une variable nommée "value" et le nom des variables associées dans une variable nimmée "variable"
  pivot_longer(
    cols = !c(year, t),
    names_to = "variable",
    values_to = "value"
  ) |> 
  print() |> 
  # Faire un graphique en ligne
  ggplot(aes(x = t, y = value)) +
  geom_line() +
  # Séparer les variables dans différents panels avec chaque axe qui leur est propre
  facet_wrap("variable", scales = "free")

# A tibble: 275 × 4
   year        t variable   value
   <chr>   <int> <chr>      <dbl>
 1 1974 Q1     1 LRM      11.6   
 2 1974 Q1     1 LRY       5.90  
 3 1974 Q1     1 LPY      -0.619 
 4 1974 Q1     1 IBO       0.155 
 5 1974 Q1     1 IDE       0.094 
 6 1974 Q2     2 LRM      11.6   
 7 1974 Q2     2 LRY       5.87  
 8 1974 Q2     2 LPY      -0.581 
 9 1974 Q2     2 IBO       0.178 
10 1974 Q2     2 IDE       0.0955
# ℹ 265 more rows
…
df_diff <- 
  df |> 
  # Modifier le dataframe df
  mutate(
    # Effectuer la même opération pour les variable sélectionnées
    across(
      .cols = c(LRY, IBO), # Sélectionner les variables LRY et IBO
      .fns = \(variable) variable - lag(variable), # Leur appliquer une fonction qui va faire la différence première
      .names = "diff_{.col}" # Créer une nouvelle variable qui va prendre le nom diff_ suivi du nom originel de la variable
    )
  ) |> 
  # Afficher le résultat
  print()

# A tibble: 55 × 8
   year      LRM   LRY    LPY   IBO    IDE diff_LRY  diff_IBO
   <chr>   <dbl> <dbl>  <dbl> <dbl>  <dbl>    <dbl>     <dbl>
 1 1974 Q1  11.6  5.90 -0.619 0.155 0.094  NA       NA       
 2 1974 Q2  11.6  5.87 -0.581 0.178 0.0955 -0.0298   0.0233  
 3 1974 Q3  11.6  5.84 -0.543 0.171 0.0955 -0.0360  -0.00743 
 4 1974 Q4  11.6  5.81 -0.505 0.152 0.0955 -0.0256  -0.0183  
 5 1975 Q1  11.6  5.80 -0.486 0.134 0.0885 -0.00831 -0.0180  
 6 1975 Q2  11.6  5.79 -0.454 0.133 0.079  -0.0172  -0.000747
 7 1975 Q3  11.7  5.83 -0.441 0.128 0.076   0.0467  -0.00507 
 8 1975 Q4  11.8  5.93 -0.439 0.129 0.074   0.0964   0.000422
 9 1976 Q1  11.8  5.94 -0.404 0.141 0.072   0.00781  0.0125  
10 1976 Q2  11.8  5.94 -0.373 0.153 0.078  -0.00232  0.0118  
# ℹ 45 more rows
…
