03-ARIMA
…
  # Pivoter en longueur pour avoir les valeurs dans une seule colonne
  # Permet de facilement gérer les couleurs et légendes avec ggplot2
  pivot_longer(
    cols = !t, # pivoter toutes les colones sauf la date
    names_to = "variable",
    values_to = "rendements"
  ) |> 
  # Garder uniquement les dernières observations pour plus de clarté
  filter(row_number() > 9000) |> 
  print(n = 10) |> 
  # Faire un graphique simple
  ggplot(aes(x = t, y = rendements, color = variable)) +
  geom_line() 

# A tibble: 570 × 3
   t          variable     rendements
   <date>     <chr>             <dbl>
 1 2024-11-19 real_value      0.396  
 2 2024-11-19 fitted_value   -0.0105 
 3 2024-11-20 real_value      0.00220
 4 2024-11-20 fitted_value   -0.0111 
 5 2024-11-21 real_value      0.533  
 6 2024-11-21 fitted_value    0.0371 
 7 2024-11-22 real_value      0.346  
 8 2024-11-22 fitted_value   -0.0279 
 9 2024-11-25 real_value      0.302  
10 2024-11-25 fitted_value   -0.00504
# ℹ 560 more rows
…
# in_sample = 4750 : on n'estime le modèle qu'une fois que l'on a au moins 4750 observations. 
pred_out_sample_best_arma <- 
  # Runner applique 
  runner::runner(
    x = rend_sp_500, # Série à utiliser
    # Fonction à utiliser : celle que l'on vient de créer
    f = \(y) func_predict(y, order = best_arma$arma[c(1,6,2)], in_sample = 4750),
    k = integer(0) # On veut faire du récursif
  ) |> 
  # Runner renvoit une liste que l'on va lier en une seule tibble
  list_rbind() |> 
  mutate(obs = as.numeric(obs)) |> 
  print()

# A tibble: 35 × 2
     obs point_forecast
   <dbl>          <dbl>
 1  4752       -0.00478
 2  4753        0.379  
 3  4754       -0.0281 
 4  4755       -0.0602 
 5  4756       -0.0547 
 6  4757       -0.122  
 7  4758       -0.0918 
 8  4759       -0.105  
 9  4760       -0.0317 
10  4761       -0.108  
# ℹ 25 more rows
…
  right_join(
    pred_out_sample_rw |> rename(point_forecast_rw = point_forecast),
    join_by(obs == obs)
  ) |> 
  # Calculer les erreurs de prévision
  mutate(
    error_pred_best_arma = gspc - point_forecast_best_arma,
    error_pred_ar_1 = gspc - point_forecast_ar_1,
    error_pred_rw = gspc - point_forecast_rw
  ) |> 
  # Garder uniquement les erreurs de prédiction et l'index
  select(obs, starts_with("error_pred")) |> 
  print()

# A tibble: 35 × 4
     obs error_pred_best_arma error_pred_ar_1 error_pred_rw
   <dbl>                <dbl>           <dbl>         <dbl>
 1  4752               -1.56           -1.56        -1.94  
 2  4753                0.598           0.748        2.55  
 3  4754                1.56            1.62         0.557 
 4  4755                0.962           1.05        -0.633 
 5  4756                0.743           0.762       -0.214 
 6  4757                0.656           0.581       -0.154 
 7  4758               -0.442          -0.505       -1.07  
 8  4759                0.351           0.143        0.779 
 9  4760                0.329           0.291        0.0521
10  4761                0.216           0.107       -0.190 
# ℹ 25 more rows
…
